YES;Ja;de
NO;Nein;de
NOT_IN_USING;Noch nicht in gebrach!;de
HAS_BETA_STATE;Noch im Beta-Status;de
MENU_HOME;Home;de
MENU_COMMANDS;Commands;de
MENU_QUOTES;Quotes;de
MENU_SONGREQUEST;Songrequest;de
MENU_RANGS;Rangs;de
MENU_USERS;Users;de
MENU_GIVEAWAY;Giveaway;de
MENU_EMOTES;Emotes;de
MENU_MULTIPAGE;Multipage;de
IMPRINT;Impressum;de
CREATET_BY;created by;de
TWITCH;Twitch;de
TWITTER;Twitter;de
STEAM;Steam;de
YOUTUBE;Youtube;de
FACEBOOK;Facebook;de
WEBSITE;Webseite;de
CREATED_BY;created by;de
COMMAND;Befehl;de
COMMANDS;Befehls;de
COMMANDTEXT;Befehlstext;de
ID;#;de
QUOTETEXT;Zitat;de
QUOTES;Zitate;de
QUOTE;Zitat;de
FROM;von;de
CURREND_SONG;aktueller Song;de
SONGTITLE;Songtitel;de
POSTED_BY;gepostet von;de
NICKNAME;Nickname;de
TIME_TODAY_MINS;Zeit (Today) in Minuten;de
TIME_TOTAL_MINS;Zeit (Total) in Minuten;de
RANG;Rang;de
RANGS;"R&auml;nge";de
POST_TODAY;Post (Today);de
POST_TOTAL;Post (Total);de
POINTS;Punkte;de
HITS;Treffer;de
TWITCHEMOTES_TEMP_NOT_AVAILABLE;Twitch-Emots temporary not available!;de
FFZEMOTES_TEMP_NOT_AVAILABLE;FrankerFaceZ-Emots temporary not available!;de
BTTVEMOTES_TEMP_NOT_AVAILABLE;BTTV-Emots temporary not available!;de
GIVEAWAY_TYPE;Art des Giveaway;de
POST_RANG;Post Rang;de
START_RANG;start Rang;de
STAY_ANONYME;Anonym bleiben;de
INTROTEXT;Einleitungstext;de
PROFIT;Gewinn;de
SAVE;Speichern;de
CREATE;Erstellen;de
RANDOM;Random;de
RAFFLE;Raffle;de
GIVEAWAY_SUCCES;Eintragen Erfolgreich! Hier ist dein Giveaway-Key:;de
GIVEAWAY_ERROR;Es ist ein Fehler aufgetretten! Sende diese Daten an einen Administrator:;de
NOT_LOGGED_IN;Du bist nicht eingeloggt!;de
LOGIN;Login;de
COOKIEMSG;Diese Seite verwendet Cookies! Sollten Sie nicht damit einverstanden sein, so verlassen Sie diese Seite. Sofern Sie weiter auf dieser Seite navigieren, akzeptieren Sie, dass diese Seite Cookies an ihrem Browser hinterlegt darf!;de
LOGOUT;logout;de
GO_TO;go to >>;de
MENU_ADMIN_HOME;Dashboard;de
MENU_ADMIN_COMMANDS;Commands;de
MENU_ADMIN_QUOTES;Quotes;de
MENU_ADMIN_SONGREQUEST;Songrequest;de
MENU_ADMIN_RANGS;Rangs;de
MENU_ADMIN_ADMINS;Admins;de
MENU_ADMIN_USERS;Users;de
MENU_ADMIN_HOSTING;Hosting;de
MENU_ADMIN_GIVEAWAY;Giveaway;de
MENU_ADMIN_TEMPLATES;Templates;de
MENU_ADMIN_CAROUSEL;Carousel;de
MENU_ADMIN_COUNTER;Counter;de
MENU_ADMIN_GAMEWISP;Gamewisp;de
ADMINS;Admins;de
USERS;Benutzer;de
USER;Benutzer;de
USERNAME;Benutzername;de
PASSWORD;Passwort;de
SONGREQUEST;Songrequest;de
MAX_SONGREQUEST;maxSongrequest;de
HOSTS;Hosts;de
GIVEAWAYS;Giveaways;de
GLOBAL;Global;de
REQUEST;Request;de
REQUESTJSON;Json-Request;de
SPAM;Spam;de
RANGONLY;RangOnly;de
COUNTER;Counter;de
HOSTING;Hosting;de
STATS;Stats;de
COMMANDS_GLOBAL_TEXT;"Wenn Keine Parameter &Uuml;bergeben worden sind, wird %PARAM1% bis %PARAM5% durch leerzeichen ersetzt<br />%CHANNEL% beginnt mit #";de
COMMANDS_RANDOM_TEXT;Begriffe in 'Extra', mit | als Trennzeichen, schreiben;de
COMMANDS_REQUEST_TEXT;"Das Result vom http-Request wird 1:1 eingef&uuml;gt!";de
COMMANDS_SPAM_TEXT;Wiederholungspattern in 'Extra', mit | als Trennzeichen, schreiben;de
COMMANDS_RANGONLY_TEXT;Ausschließlich für angegebenen Rang ausführbar;de
COMMANDS_COUNTER_TEXT;In 'Extra' erst idRang (bei der hoch gezählt wird) dann aktuellen werd, mit | als Trennzeichen;de
COMMANDS_ALIAS_TEXT;Auszuführenden Befehl in 'Extra' schreiben;de
COMMANDS_MODAL_TITLE;"Command l&ouml;schen?";de
COMMANDS_MODAL_TEXT;"Soll der Command wirklich gel&ouml;scht werden?";de
EXTRA;Extra;de
TYPE;Type;de
REGULARONLY;regularOnly;de
EDIT;edit;de
DELETE;"l&ouml;schen";de
TEXT;Text;de
SCRIPT;Script;de
ALIAS;alias;de
TIMER;timer;de
LOCK;sperren;de
RELEASE;freigeben;de
IDQUERY;idQuote;de
QUOTES_MODAL_TITLE;"Quote l&ouml;schen?";de
QUOTES_MODAL_TEXT;"Soll der Quote wirklich gel&ouml;scht werden?";de
INDEX;Index;de
NEXT;weiter;de
SONGREQUEST_MODAL_TITLE;"Song l&ouml;schen?";de
SONGREQUEST_MODAL_TEXT;"Soll der Song wirklich gel&ouml;scht werden?";de
DURATION;"L&auml;nge";de
RANG_MODAL_TITLE;"Rang l&ouml;schen";de
RANG_MODAL_TEXT;"Soll der Rang wirklich gel&ouml;scht werden?";de
IDRANG;idRang;de
ADMINS_MODAL_TITLE;"Admin l&ouml;schen?";de
ADMINS_MODAL_TEXT;"Soll der Admin wirklich gel&ouml;scht werden?";de
IDADMIN;idAdmin;de
IDHOST;idHost;de
CHANNEL;Kanal;de
PRIORITY;Priorität;de
HOSTING_MODAL_TITLE;"Host l&ouml;schen?";de
HOSTING_MODAL_TEXT;"Soll der Host wirklich gel&ouml;scht werden?";de
IDGIVEAWAY;idGiveaway;de
KEY;Key;de
MINRANGWINNER;min. Rang gewinner;de
ANONYM;Anonym;de
INTRO;Introtext;de
STATUS;Status;de
CREATOR;Ersteller;de
CONFIRMER;"Best&auml;tigt durch";de
WINNER;Gewinner;de
DATECREATE;Erstellungsdatum;de
DATEEXECUTED;"Ausf&uuml;hrungsdatum";de
GIVEAWAY_MODAL_TITLE;"Giveaway l&ouml;schen?";de
GIVEAWAY_MODAL_TEXT;"Soll der Giveaway wirklich gel&ouml;scht werden?";de
NOTE;Hinweis;de
TEMPLATENAME;Templatename;de
LINKS;Link;de
LINKS_OBS_EVENT;"<a href='.Config::getDocumentRoot()./custom/api/?action=showEventPage'>Event f&uuml;r OBS</a>";de
PLACEHOLDER;Platzhalter;de
CONTENT;Content;de
TEMPLAES_MODAL_TITLE;"Template l&ouml;schen?";de
TEMPLAES_MODAL_TEXT;"Soll der Template wirklich gel&ouml;scht werden?";de
GROUP;Gruppe;de
IMAGE;Bild;de
PARAMETERS;Parameter;de
CAROUSEL_PARAMETERS_G;"g;verwendet nur Bilder aus der Gruppe (bei keiner Angabe werden alle angezeigt)";de
CAROUSEL_PARAMETERS_T;"t;Zeit der Bilderwechsel in <strong>millisekunden</strong> (default: 10000)";de
CAROUSEL_PARAMETERS_BG;"bg;Hintergrundfarbe in <strong>HEX-Code</strong> ohne # (default: <span style='background-color:#4b1e30; color:#ffffff;'>4b1e30</span>)";de
CAROUSEL_MOTAL_TITLE;"Bild l&ouml;schen?";de
CAROUSEL_MOTAL_TEXT;"Soll der Bild wirklich gel&ouml;scht werden?";de
DEADLINE;Dealdline;de
COUNTER_PARAMETERS_G;"g;verwendet nur Counter aus der Gruppe (bei keiner Angabe werden alle angezeigt)";de
COUNTER_PARAMETERS_L;"l;verwenden um nur eine bestimmte Anzahl anzuzeigen (bei keiner Angabe werden alle angezeigt)";de
COUNTER_PARAMETERS_O;"o;verwenden um die Sortierung des Counters anzugeben ('asc' für absteigend, 'desc' für aufsteifend) (bei keiner Angabe wird absteigend verwendet)";de
COUNTER_MOTAL_TITLE;"Eintrag l&ouml;schen?";de
COUNTER_MOTAL_TEXT;"Soll der Eintrag wirklich gel&ouml;scht werden?";de
APPLICATION_DATA;Application Data;de
GAMEWISP_APIPAGE;Api-Seite;de
GAMEWISP_APIPAGE_TEXT;In der URL muss <i>{CODE}</i> ausgetauscht werden.;de
GAMEWISP_AUTORISATION;autorisation;de
GAMEWISP_AUTORISATION_TEXT;ACHTUNG: Nach dem Bestätigen wird man auf die Api Seide <u>dieser</u> Anwendung geleitet!;de
DATABASE;Datenbank;de
AKTIVE;aktiv;de
MAX_SONGS;max. Songs;de
SONG_PER_PERSON;Songs pro Person;de
SONG_PER_SPEZIAL_PERSON;Song pro Spezial Person;de
MAX_DURATION;max. Länge (in Minuten);de
FILE;Datei;de
IMPORT;importieren;de
TITLE;Titel;de
NAME;Name;de
MENU_ADMIN_SETTINGS;Einstellungen;de
CHANGELOG;Changelog;de
LMGTFY;Let me google that for you;de
FILE;File;de
STYLE;Style;de
DEFAULT_STYLE;Standartstyle;de
DEFAULT_STYLE_ADMIN;Standartstyle (Admin);de
MIN_POST;min. Post;de
MIN_TIME;min. Zeit;de
INDEX;index;de
ISPUBLIC;öffentlich;de
MULTIPLE_NOTIC;<small>STRG halten zum aus-/abwählen</small>;de
RANGSYSTEM;Rangsystem;de
LAST_UPDATE;letzte Aktualisierung;de
UPDATE_INTERVAL;Updateinterval;de
MESSAGE;Nachricht;de
MESSAGE_DURABLE;Dauernachricht;de
BOTSETTINGS;Bot-Einstellungen;de
MAXSONGTYPE;max. Songrequest-Typ;de
HIGHEST;höchste;de
LOWEST;kleinste;de
ADDITION;addiert;de
